[
	{
		"name": "Priority: Critical",
		"color": "#B03517",
		"text_color": "#FFFFFF",
		"priority": 0
	},
	{
		"name": "Priority: Medium",
		"color": "#05B077",
		"text_color": "#FFFFFF",
		"priority": 1
	},
	{
		"name": "Priority: Low",
		"color": "#0495BD",
		"text_color": "#FFFFFF",
		"priority": 2
	},
	{
		"name": "Status: Accepted",
		"color": "#04C7BD",
		"text_color": "#FFFFFF"
	},
	{
		"name": "Status: In Progress",
		"color": "#A6F5BD",
		"text_color": "#FFFFFF"
	},
	{
		"name": "Status: Completed",
		"color": "#05B077",
		"text_color": "#FFFFFF"
	},
	{
		"name": "Status: Abandoned",
		"color": "#20414A",
		"text_color": "#FFFFFF"
	},
	{
		"name": "Status: Duplicate",
		"color": "#0495BD",
		"text_color": "#FFFFFF"
	},
	{
		"name": "Status: Feedback Needed",
		"color": "#FC8C21",
		"text_color": "#FFFFFF"
	},
	{
		"name": "Status: Help Needed",
		"color": "#FEBB14",
		"text_color": "#FFFFFF"
	},
	{
		"name": "Type: Bug",
		"color": "#B03517",
		"text_color": "#FFFFFF"
	},
	{
		"name": "Type: Enhancement",
		"color": "#05B077",
		"text_color": "#FFFFFF"
	},
	{
		"name": "Type: Maintenance",
		"color": "#FC8C21",
		"text_color": "#FFFFFF"
	},
	{
		"name": "Type: Question",
		"color": "#0495BD",
		"text_color": "#FFFFFF"
	}
]
